ALL0002/F0002CH1.CSV

Record Length,2.500000e+03,,  -0.000008000000,  10.00000,
Sample Interval,2.000000e-08,,  -0.000007980000,  10.00000,
Trigger Point,4.000000000000e+02,,  -0.000007960000,  10.00000,
,,,  -0.000007940000,  10.20000,
,,,  -0.000007920000,  10.00000,
,,,  -0.000007900000,   9.80000,
Source,CH1,,  -0.000007880000,  10.00000,
Vertical Units,V,,  -0.000007860000,  10.20000,
Vertical Scale,5.000000e+00,,  -0.000007840000,   9.80000,
Vertical Offset,-5.000000e+00,,  -0.000007820000,  10.00000,
Horizontal Units,s,,  -0.000007800000,  10.00000,
Horizontal Scale,5.000000e-06,,  -0.000007780000,  10.00000,
Pt Fmt,Y,,  -0.000007760000,  10.20000,
Yzero,0.000000e+00,,  -0.000007740000,  10.00000,
Probe Atten,1.000000e+00,,  -0.000007720000,  10.20000,
Model Number,TDS1012B,,  -0.000007700000,  10.00000,
Serial Number,C063631,,  -0.000007680000,   9.80000,
Firmware Version,FV:v22.01,,  -0.000007660000,   9.80000,
,,,-00.000007640000,  10.00000,
,,,-00.000007620000,  10.20000,
,,,-00.000007600000,  10.00000,
,,,-00.000007580000,  10.20000,
,,,-00.000007560000,  10.20000,
,,,-00.000007540000,  10.20000,
,,,-00.000007520000,   9.80000,
,,,-00.000007500000,  10.00000,
,,,-00.000007480000,  10.00000,
,,,-00.000007460000,  10.00000,
,,,-00.000007440000,  10.00000,
,,,-00.000007420000,  10.00000,
,,,-00.000007400000,   9.80000,
,,,-00.000007380000,  10.00000,
,,,-00.000007360000,  10.00000,
,,,-00.000007340000,  10.00000,
,,,-00.000007320000,   9.80000,
,,,-00.000007300000,  10.00000,
,,,-00.000007280000,  10.00000,
,,,-00.000007260000,  10.20000,
,,,-00.000007240000,  10.00000,
,,,-00.000007220000,   9.80000,
,,,-00.000007200000,  10.00000,
,,,-00.000007180000,  10.00000,
,,,-00.000007160000,   9.80000,
,,,-00.000007140000,   9.80000,
,,,-00.000007120000,  10.00000,
,,,-00.000007100000,  10.00000,
,,,-00.000007080000,  10.00000,
,,,-00.000007060000,  10.20000,
,,,-00.000007040000,   9.60000,
,,,-00.000007020000,  10.00000,
,,,-00.000007000000,  10.00000,
,,,-00.000006980000,   9.80000,
,,,-00.000006960000,   9.80000,
,,,-00.000006940000,  10.00000,
,,,-00.000006920000,  10.00000,
,,,-00.000006900000,  10.00000,
,,,-00.000006880000,  10.00000,
,,,-00.000006860000,  10.00000,
,,,-00.000006840000,   9.80000,
,,,-00.000006820000,  10.00000,
,,,-00.000006800000,  10.00000,
,,,-00.000006780000,  10.00000,
,,,-00.000006760000,  10.00000,
,,,-00.000006740000,  10.00000,
,,,-00.000006720000,  10.00000,
,,,-00.000006700000,  10.00000,
,,,-00.000006680000,   9.80000,
,,,-00.000006660000,   9.80000,
,,,-00.000006640000,  10.00000,
,,,-00.000006620000,   9.80000,
,,,-00.000006600000,  10.20000,
,,,-00.000006580000,  10.00000,
,,,-00.000006560000,   9.80000,
,,,-00.000006540000,  10.00000,
,,,-00.000006520000,   9.80000,
,,,-00.000006500000,   9.80000,
,,,-00.000006480000,   9.80000,
,,,-00.000006460000,  10.00000,
,,,-00.000006440000,   9.80000,
,,,-00.000006420000,  10.00000,
,,,-00.000006400000,   9.80000,
,,,-00.000006380000,   9.80000,
,,,-00.000006360000,   9.80000,
,,,-00.000006340000,   9.80000,
,,,-00.000006320000,   9.80000,
,,,-00.000006300000,   9.80000,
,,,-00.000006280000,   9.80000,
,,,-00.000006260000,   9.80000,
,,,-00.000006240000,   9.80000,
,,,-00.000006220000,   9.60000,
,,,-00.000006200000,  10.00000,
,,,-00.000006180000,   9.80000,
,,,-00.000006160000,   9.80000,
,,,-00.000006140000,   9.80000,
,,,-00.000006120000,   9.80000,
,,,-00.000006100000,   9.80000,
,,,-00.000006080000,   9.80000,
,,,-00.000006060000,   9.80000,
,,,-00.000006040000,   9.60000,
,,,-00.000006020000,   9.80000,
,,,-00.000006000000,   9.60000,
,,,-00.000005980000,   9.60000,
,,,-00.000005960000,   9.40000,
,,,-00.000005940000,   9.80000,
,,,-00.000005920000,   9.60000,
,,,-00.000005900000,   9.60000,
,,,-00.000005880000,   9.60000,
,,,-00.000005860000,   9.60000,
,,,-00.000005840000,   9.40000,
,,,-00.000005820000,   9.60000,
,,,-00.000005800000,   9.60000,
,,,-00.000005780000,   9.60000,
,,,-00.000005760000,   9.40000,
,,,-00.000005740000,   9.40000,
,,,-00.000005720000,   9.40000,
,,,-00.000005700000,   9.40000,
,,,-00.000005680000,   9.60000,
,,,-00.000005660000,   9.40000,
,,,-00.000005640000,   9.40000,
,,,-00.000005620000,   9.40000,
,,,-00.000005600000,   9.60000,
,,,-00.000005580000,   9.40000,
,,,-00.000005560000,   9.40000,
,,,-00.000005540000,   9.40000,
,,,-00.000005520000,   9.20000,
,,,-00.000005500000,   9.20000,
,,,-00.000005480000,   9.40000,
,,,-00.000005460000,   9.40000,
,,,-00.000005440000,   9.20000,
,,,-00.000005420000,   9.40000,
,,,-00.000005400000,   9.40000,
,,,-00.000005380000,   9.20000,
,,,-00.000005360000,   9.00000,
,,,-00.000005340000,   9.00000,
,,,-00.000005320000,   9.20000,
,,,-00.000005300000,   9.20000,
,,,-00.000005280000,   9.00000,
,,,-00.000005260000,   9.00000,
,,,-00.000005240000,   9.00000,
,,,-00.000005220000,   9.00000,
,,,-00.000005200000,   9.20000,
,,,-00.000005180000,   9.00000,
,,,-00.000005160000,   8.80000,
,,,-00.000005140000,   9.00000,
,,,-00.000005120000,   9.00000,
,,,-00.000005100000,   9.00000,
,,,-00.000005080000,   9.00000,
,,,-00.000005060000,   8.80000,
,,,-00.000005040000,   9.00000,
,,,-00.000005020000,   8.80000,
,,,-00.000005000000,   8.80000,
,,,-00.000004980000,   8.80000,
,,,-00.000004960000,   8.80000,
,,,-00.000004940000,   8.60000,
,,,-00.000004920000,   8.80000,
,,,-00.000004900000,   8.60000,
,,,-00.000004880000,   8.60000,
,,,-00.000004860000,   8.60000,
,,,-00.000004840000,   8.80000,
,,,-00.000004820000,   8.60000,
,,,-00.000004800000,   8.80000,
,,,-00.000004780000,   8.40000,
,,,-00.000004760000,   8.60000,
,,,-00.000004740000,   8.40000,
,,,-00.000004720000,   8.60000,
,,,-00.000004700000,   8.60000,
,,,-00.000004680000,   8.20000,
,,,-00.000004660000,   8.40000,
,,,-00.000004640000,   8.40000,
,,,-00.000004620000,   8.40000,
,,,-00.000004600000,   8.20000,
,,,-00.000004580000,   8.20000,
,,,-00.000004560000,   8.40000,
,,,-00.000004540000,   8.40000,
,,,-00.000004520000,   8.20000,
,,,-00.000004500000,   8.00000,
,,,-00.000004480000,   8.40000,
,,,-00.000004460000,   8.20000,
,,,-00.000004440000,   8.20000,
,,,-00.000004420000,   8.00000,
,,,-00.000004400000,   7.80000,
,,,-00.000004380000,   8.00000,
,,,-00.000004360000,   7.80000,
,,,-00.000004340000,   8.00000,
,,,-00.000004320000,   8.00000,
,,,-00.000004300000,   7.80000,
,,,-00.000004280000,   8.00000,
,,,-00.000004260000,   8.00000,
,,,-00.000004240000,   7.80000,
,,,-00.000004220000,   7.60000,
,,,-00.000004200000,   7.80000,
,,,-00.000004180000,   7.80000,
,,,-00.000004160000,   7.80000,
,,,-00.000004140000,   7.60000,
,,,-00.000004120000,   7.60000,
,,,-00.000004100000,   7.40000,
,,,-00.000004080000,   7.60000,
,,,-00.000004060000,   7.60000,
,,,-00.000004040000,   7.60000,
,,,-00.000004020000,   7.20000,
,,,-00.000004000000,   7.40000,
,,,-00.000003980000,   7.40000,
,,,-00.000003960000,   7.40000,
,,,-00.000003940000,   7.40000,
,,,-00.000003920000,   7.20000,
,,,-00.000003900000,   7.40000,
,,,-00.000003880000,   7.20000,
,,,-00.000003860000,   7.20000,
,,,-00.000003840000,   7.20000,
,,,-00.000003820000,   7.20000,
,,,-00.000003800000,   7.00000,
,,,-00.000003780000,   7.00000,
,,,-00.000003760000,   7.20000,
,,,-00.000003740000,   7.20000,
,,,-00.000003720000,   7.00000,
,,,-00.000003700000,   7.00000,
,,,-00.000003680000,   7.00000,
,,,-00.000003660000,   7.00000,
,,,-00.000003640000,   6.80000,
,,,-00.000003620000,   6.60000,
,,,-00.000003600000,   7.00000,
,,,-00.000003580000,   6.60000,
,,,-00.000003560000,   6.60000,
,,,-00.000003540000,   6.80000,
,,,-00.000003520000,   6.40000,
,,,-00.000003500000,   6.60000,
,,,-00.000003480000,   6.40000,
,,,-00.000003460000,   6.20000,
,,,-00.000003440000,   6.20000,
,,,-00.000003420000,   6.20000,
,,,-00.000003400000,   6.40000,
,,,-00.000003380000,   6.20000,
,,,-00.000003360000,   6.20000,
,,,-00.000003340000,   6.40000,
,,,-00.000003320000,   6.20000,
,,,-00.000003300000,   6.20000,
,,,-00.000003280000,   6.20000,
,,,-00.000003260000,   6.20000,
,,,-00.000003240000,   6.00000,
,,,-00.000003220000,   5.80000,
,,,-00.000003200000,   5.80000,
,,,-00.000003180000,   5.60000,
,,,-00.000003160000,   6.00000,
,,,-00.000003140000,   5.80000,
,,,-00.000003120000,   5.80000,
,,,-00.000003100000,   6.00000,
,,,-00.000003080000,   5.60000,
,,,-00.000003060000,   5.60000,
,,,-00.000003040000,   5.60000,
,,,-00.000003020000,   5.60000,
,,,-00.000003000000,   5.60000,
,,,-00.000002980000,   5.60000,
,,,-00.000002960000,   5.60000,
,,,-00.000002940000,   5.40000,
,,,-00.000002920000,   5.60000,
,,,-00.000002900000,   5.40000,
,,,-00.000002880000,   5.20000,
,,,-00.000002860000,   5.40000,
,,,-00.000002840000,   5.20000,
,,,-00.000002820000,   5.20000,
,,,-00.000002800000,   5.40000,
,,,-00.000002780000,   5.20000,
,,,-00.000002760000,   4.80000,
,,,-00.000002740000,   5.00000,
,,,-00.000002720000,   5.00000,
,,,-00.000002700000,   5.00000,
,,,-00.000002680000,   5.00000,
,,,-00.000002660000,   5.00000,
,,,-00.000002640000,   4.80000,
,,,-00.000002620000,   4.80000,
,,,-00.000002600000,   5.00000,
,,,-00.000002580000,   4.80000,
,,,-00.000002560000,   4.60000,
,,,-00.000002540000,   4.60000,
,,,-00.000002520000,   4.60000,
,,,-00.000002500000,   4.60000,
,,,-00.000002480000,   4.80000,
,,,-00.000002460000,   4.80000,
,,,-00.000002440000,   4.60000,
,,,-00.000002420000,   4.60000,
,,,-00.000002400000,   4.40000,
,,,-00.000002380000,   4.40000,
,,,-00.000002360000,   4.20000,
,,,-00.000002340000,   4.40000,
,,,-00.000002320000,   4.40000,
,,,-00.000002300000,   4.40000,
,,,-00.000002280000,   4.20000,
,,,-00.000002260000,   4.20000,
,,,-00.000002240000,   4.20000,
,,,-00.000002220000,   4.00000,
,,,-00.000002200000,   4.00000,
,,,-00.000002180000,   4.00000,
,,,-00.000002160000,   4.20000,
,,,-00.000002140000,   4.20000,
,,,-00.000002120000,   3.80000,
,,,-00.000002100000,   3.80000,
,,,-00.000002080000,   3.60000,
,,,-00.000002060000,   3.80000,
,,,-00.000002040000,   3.80000,
,,,-00.000002020000,   3.80000,
,,,-00.000002000000,   3.60000,
,,,-00.000001980000,   3.60000,
,,,-00.000001960000,   3.40000,
,,,-00.000001940000,   3.60000,
,,,-00.000001920000,   3.60000,
,,,-00.000001900000,   3.20000,
,,,-00.000001880000,   3.40000,
,,,-00.000001860000,   3.20000,
,,,-00.000001840000,   3.00000,
,,,-00.000001820000,   3.40000,
,,,-00.000001800000,   3.20000,
,,,-00.000001780000,   3.20000,
,,,-00.000001760000,   3.00000,
,,,-00.000001740000,   3.00000,
,,,-00.000001720000,   3.00000,
,,,-00.000001700000,   2.80000,
,,,-00.000001680000,   3.20000,
,,,-00.000001660000,   2.60000,
,,,-00.000001640000,   3.00000,
,,,-00.000001620000,   2.80000,
,,,-00.000001600000,   3.00000,
,,,-00.000001580000,   2.80000,
,,,-00.000001560000,   2.80000,
,,,-00.000001540000,   2.60000,
,,,-00.000001520000,   2.60000,
,,,-00.000001500000,   2.60000,
,,,-00.000001480000,   2.60000,
,,,-00.000001460000,   2.40000,
,,,-00.000001440000,   2.20000,
,,,-00.000001420000,   2.60000,
,,,-00.000001400000,   2.40000,
,,,-00.000001380000,   2.20000,
,,,-00.000001360000,   2.40000,
,,,-00.000001340000,   2.40000,
,,,-00.000001320000,   2.40000,
,,,-00.000001300000,   2.20000,
,,,-00.000001280000,   2.20000,
,,,-00.000001260000,   2.20000,
,,,-00.000001240000,   2.00000,
,,,-00.000001220000,   2.20000,
,,,-00.000001200000,   2.00000,
,,,-00.000001180000,   2.00000,
,,,-00.000001160000,   2.00000,
,,,-00.000001140000,   1.80000,
,,,-00.000001120000,   2.00000,
,,,-00.000001100000,   1.80000,
,,,-00.000001080000,   1.60000,
,,,-00.000001060000,   2.00000,
,,,-00.000001040000,   1.60000,
,,,-00.000001020000,   1.60000,
,,,-00.000001000000,   1.60000,
,,,-00.000000980000,   1.40000,
,,,-00.000000960000,   1.80000,
,,,-00.000000940000,   1.40000,
,,,-00.000000920000,   1.60000,
,,,-00.000000900000,   1.40000,
,,,-00.000000880000,   1.60000,
,,,-00.000000860000,   1.40000,
,,,-00.000000840000,   1.20000,
,,,-00.000000820000,   1.20000,
,,,-00.000000800000,   1.20000,
,,,-00.000000780000,   1.20000,
,,,-00.000000760000,   1.40000,
,,,-00.000000740000,   1.00000,
,,,-00.000000720000,   1.00000,
,,,-00.000000700000,   1.00000,
,,,-00.000000680000,   1.00000,
,,,-00.000000660000,   1.00000,
,,,-00.000000640000,   1.00000,
,,,-00.000000620000,   1.00000,
,,,-00.000000600000,   1.20000,
,,,-00.000000580000,   0.80000,
,,,-00.000000560000,   0.80000,
,,,-00.000000540000,   0.60000,
,,,-00.000000520000,   0.60000,
,,,-00.000000500000,   0.80000,
,,,-00.000000480000,   0.60000,
,,,-00.000000460000,   0.60000,
,,,-00.000000440000,   0.40000,
,,,-00.000000420000,   0.40000,
,,,-00.000000400000,   0.40000,
,,,-00.000000380000,   0.20000,
,,,-00.000000360000,   0.40000,
,,,-00.000000340000,   0.20000,
,,,-00.000000320000,   0.40000,
,,,-00.000000300000,   0.00000,
,,,-00.000000280000,   0.40000,
,,,-00.000000260000,   0.40000,
,,,-00.000000240000,   0.20000,
,,,-00.000000220000,  -0.20000,
,,,-00.000000200000,   0.20000,
,,,-00.000000180000,   0.00000,
,,,-00.000000160000,  -0.20000,
,,,-00.000000140000,   0.00000,
,,,-00.000000120000,   0.00000,
,,,-00.000000100000,  -0.20000,
,,,-00.000000080000,  -0.20000,
,,,-00.000000060000,  -0.20000,
,,,-00.000000040000,  -0.20000,
,,,-00.000000020000,  -0.20000,
,,,-00.000000000000,  -0.20000,
,,,00.000000020000,  -0.40000,
,,,00.000000040000,  -0.40000,
,,,00.000000060000,  -0.60000,
,,,00.000000080000,  -0.60000,
,,,00.000000100000,  -0.80000,
,,,00.000000120000,  -0.60000,
,,,00.000000140000,  -0.60000,
,,,00.000000160000,  -0.40000,
,,,00.000000180000,  -0.80000,
,,,00.000000200000,  -0.80000,
,,,00.000000220000,  -0.60000,
,,,00.000000240000,  -0.80000,
,,,00.000000260000,  -0.60000,
,,,00.000000280000,  -1.00000,
,,,00.000000300000,  -0.80000,
,,,00.000000320000,  -1.00000,
,,,00.000000340000,  -1.00000,
,,,00.000000360000,  -1.00000,
,,,00.000000380000,  -1.00000,
,,,00.000000400000,  -1.20000,
,,,00.000000420000,  -1.00000,
,,,00.000000440000,  -1.20000,
,,,00.000000460000,  -1.00000,
,,,00.000000480000,  -1.20000,
,,,00.000000500000,  -1.20000,
,,,00.000000520000,  -1.40000,
,,,00.000000540000,  -1.40000,
,,,00.000000560000,  -1.40000,
,,,00.000000580000,  -1.20000,
,,,00.000000600000,  -1.60000,
,,,00.000000620000,  -1.60000,
,,,00.000000640000,  -1.40000,
,,,00.000000660000,  -1.60000,
,,,00.000000680000,  -1.40000,
,,,00.000000700000,  -1.60000,
,,,00.000000720000,  -1.60000,
,,,00.000000740000,  -1.60000,
,,,00.000000760000,  -1.60000,
,,,00.000000780000,  -1.60000,
,,,00.000000800000,  -1.60000,
,,,00.000000820000,  -2.00000,
,,,00.000000840000,  -1.60000,
,,,00.000000860000,  -2.00000,
,,,00.000000880000,  -2.00000,
,,,00.000000900000,  -1.80000,
,,,00.000000920000,  -2.00000,
,,,00.000000940000,  -2.00000,
,,,00.000000960000,  -1.80000,
,,,00.000000980000,  -2.00000,
,,,00.000001000000,  -2.20000,
,,,00.000001020000,  -2.00000,
,,,00.000001040000,  -2.20000,
,,,00.000001060000,  -2.20000,
,,,00.000001080000,  -2.20000,
,,,00.000001100000,  -2.20000,
,,,00.000001120000,  -2.40000,
,,,00.000001140000,  -2.40000,
,,,00.000001160000,  -2.40000,
,,,00.000001180000,  -2.40000,
,,,00.000001200000,  -2.60000,
,,,00.000001220000,  -2.40000,
,,,00.000001240000,  -2.80000,
,,,00.000001260000,  -2.40000,
,,,00.000001280000,  -2.60000,
,,,00.000001300000,  -2.80000,
,,,00.000001320000,  -2.80000,
,,,00.000001340000,  -2.60000,
,,,00.000001360000,  -2.80000,
,,,00.000001380000,  -2.60000,
,,,00.000001400000,  -2.80000,
,,,00.000001420000,  -2.80000,
,,,00.000001440000,  -3.00000,
,,,00.000001460000,  -2.80000,
,,,00.000001480000,  -2.80000,
,,,00.000001500000,  -2.80000,
,,,00.000001520000,  -3.20000,
,,,00.000001540000,  -3.20000,
,,,00.000001560000,  -3.00000,
,,,00.000001580000,  -2.80000,
,,,00.000001600000,  -3.00000,
,,,00.000001620000,  -3.20000,
,,,00.000001640000,  -3.00000,
,,,00.000001660000,  -3.20000,
,,,00.000001680000,  -3.20000,
,,,00.000001700000,  -3.20000,
,,,00.000001720000,  -3.20000,
,,,00.000001740000,  -3.20000,
,,,00.000001760000,  -3.40000,
,,,00.000001780000,  -3.40000,
,,,00.000001800000,  -3.20000,
,,,00.000001820000,  -3.40000,
,,,00.000001840000,  -3.60000,
,,,00.000001860000,  -3.40000,
,,,00.000001880000,  -3.80000,
,,,00.000001900000,  -3.40000,
,,,00.000001920000,  -3.60000,
,,,00.000001940000,  -3.60000,
,,,00.000001960000,  -3.80000,
,,,00.000001980000,  -3.80000,
,,,00.000002000000,  -3.80000,
,,,00.000002020000,  -3.80000,
,,,00.000002040000,  -3.40000,
,,,00.000002060000,  -3.80000,
,,,00.000002080000,  -4.00000,
,,,00.000002100000,  -3.80000,
,,,00.000002120000,  -4.00000,
,,,00.000002140000,  -3.80000,
,,,00.000002160000,  -4.00000,
,,,00.000002180000,  -4.00000,
,,,00.000002200000,  -4.00000,
,,,00.000002220000,  -4.20000,
,,,00.000002240000,  -4.00000,
,,,00.000002260000,  -4.00000,
,,,00.000002280000,  -4.00000,
,,,00.000002300000,  -4.20000,
,,,00.000002320000,  -4.20000,
,,,00.000002340000,  -4.40000,
,,,00.000002360000,  -4.40000,
,,,00.000002380000,  -4.00000,
,,,00.000002400000,  -4.60000,
,,,00.000002420000,  -4.60000,
,,,00.000002440000,  -4.20000,
,,,00.000002460000,  -4.20000,
,,,00.000002480000,  -4.40000,
,,,00.000002500000,  -4.60000,
,,,00.000002520000,  -4.60000,
,,,00.000002540000,  -4.60000,
,,,00.000002560000,  -4.60000,
,,,00.000002580000,  -4.60000,
,,,00.000002600000,  -4.60000,
,,,00.000002620000,  -4.80000,
,,,00.000002640000,  -4.80000,
,,,00.000002660000,  -4.40000,
,,,00.000002680000,  -4.80000,
,,,00.000002700000,  -5.00000,
,,,00.000002720000,  -4.80000,
,,,00.000002740000,  -5.20000,
,,,00.000002760000,  -4.80000,
,,,00.000002780000,  -4.80000,
,,,00.000002800000,  -5.00000,
,,,00.000002820000,  -5.20000,
,,,00.000002840000,  -5.00000,
,,,00.000002860000,  -4.80000,
,,,00.000002880000,  -4.80000,
,,,00.000002900000,  -4.80000,
,,,00.000002920000,  -5.20000,
,,,00.000002940000,  -5.00000,
,,,00.000002960000,  -5.00000,
,,,00.000002980000,  -5.00000,
,,,00.000003000000,  -5.00000,
,,,00.000003020000,  -5.40000,
,,,00.000003040000,  -5.20000,
,,,00.000003060000,  -5.00000,
,,,00.000003080000,  -5.20000,
,,,00.000003100000,  -5.40000,
,,,00.000003120000,  -5.40000,
,,,00.000003140000,  -5.20000,
,,,00.000003160000,  -5.40000,
,,,00.000003180000,  -5.20000,
,,,00.000003200000,  -5.40000,
,,,00.000003220000,  -5.60000,
,,,00.000003240000,  -5.60000,
,,,00.000003260000,  -5.60000,
,,,00.000003280000,  -5.60000,
,,,00.000003300000,  -5.40000,
,,,00.000003320000,  -5.60000,
,,,00.000003340000,  -5.40000,
,,,00.000003360000,  -5.80000,
,,,00.000003380000,  -5.80000,
,,,00.000003400000,  -5.60000,
,,,00.000003420000,  -5.40000,
,,,00.000003440000,  -5.60000,
,,,00.000003460000,  -5.80000,
,,,00.000003480000,  -5.80000,
,,,00.000003500000,  -5.80000,
,,,00.000003520000,  -5.80000,
,,,00.000003540000,  -5.80000,
,,,00.000003560000,  -5.80000,
,,,00.000003580000,  -5.80000,
,,,00.000003600000,  -5.80000,
,,,00.000003620000,  -5.80000,
,,,00.000003640000,  -6.00000,
,,,00.000003660000,  -5.80000,
,,,00.000003680000,  -5.80000,
,,,00.000003700000,  -6.00000,
,,,00.000003720000,  -6.00000,
,,,00.000003740000,  -6.00000,
,,,00.000003760000,  -6.00000,
,,,00.000003780000,  -6.00000,
,,,00.000003800000,  -6.00000,
,,,00.000003820000,  -6.20000,
,,,00.000003840000,  -6.00000,
,,,00.000003860000,  -6.40000,
,,,00.000003880000,  -6.20000,
,,,00.000003900000,  -6.20000,
,,,00.000003920000,  -6.20000,
,,,00.000003940000,  -6.40000,
,,,00.000003960000,  -6.40000,
,,,00.000003980000,  -6.20000,
,,,00.000004000000,  -6.20000,
,,,00.000004020000,  -6.40000,
,,,00.000004040000,  -6.60000,
,,,00.000004060000,  -6.40000,
,,,00.000004080000,  -6.40000,
,,,00.000004100000,  -6.80000,
,,,00.000004120000,  -6.60000,
,,,00.000004140000,  -6.60000,
,,,00.000004160000,  -6.60000,
,,,00.000004180000,  -6.40000,
,,,00.000004200000,  -6.60000,
,,,00.000004220000,  -6.40000,
,,,00.000004240000,  -6.80000,
,,,00.000004260000,  -6.60000,
,,,00.000004280000,  -6.60000,
,,,00.000004300000,  -6.80000,
,,,00.000004320000,  -6.60000,
,,,00.000004340000,  -6.80000,
,,,00.000004360000,  -6.80000,
,,,00.000004380000,  -7.00000,
,,,00.000004400000,  -7.00000,
